{
    "name": "DashMediaLibrary",
    "alias": "dash-media-library",
    "description": "",
    "keywords": [],
    "active": 1,
    "order": 0,
    "providers": [
        "Dash\\Modules\\MediaLibrary\\Providers\\MediaLibraryServiceProvider"
    ],
    "aliases": {},
    "files": [],
    "requires": [

    ]
}
